Final Project
…
ca_data

## # A tibble: 17,320 x 9
##    Object     `Close-Approach (C `CA Distance Nomina `CA Distance Minim
##    <chr>      <chr>               <chr>                <chr>              
##  1 509352 (2 1900-Jan-04 22:25  3.75 | 0.00963       3.75 | 0.00962     
##  2 (2014 SC3 1900-Jan-11 01:03  15.55 | 0.03995      15.52 | 0.03989    
##  3 4660 Nere 1900-Jan-29 18:22  8.09 | 0.02079       8.08 | 0.02077     
##  4 (2015 RW8 1900-Feb-04 02:31  12.63 | 0.03245      12.46 | 0.03201    
##  5 (2009 BW2) 1900-Feb-04 11:05  6.86 | 0.01763       6.40 | 0.01644     
##  6 (2002 LY1) 1900-Feb-05 22:08  19.09 | 0.04904      19.08 | 0.04903    
##  7 348306 (2 1900-Feb-05 23:42  13.27 | 0.03409      13.27 | 0.03409    
##  8 378160 (2 1900-Feb-10 05:07  14.35 | 0.03689      14.30 | 0.03675    
##  9 (2012 SD2 1900-Feb-18 08:31  15.69 | 0.04032      15.69 | 0.04031    
## 10 (2013 RZ5) 1900-Feb-27 20:23  13.57 | 0.03486      8.74 | 0.02246     
## # ... with 17,310 more rows, and 5 more variables: `V relative
## #   (km/s)` <dbl>, `V infinity (km/s)` <dbl>, `H (mag)` <chr>, `Estimated
## #   Diameter` <chr>, X9 <chr>
…
## Rename the velocity columns
names(ca_data)[names(ca_data) == 'V relative (km/s)'] <- 'velocity_relative'
names(ca_data)[names(ca_data) == 'V infinity (km/s)'] <- 'velocity_infinity'

## Print out the dataset so that we can take a nice long look at our work
ca_data

## # A tibble: 17,311 x 10
##    Object                ca_date             ca_distance_au ca_minimum_au
##    <chr>                 <dttm>                       <dbl>         <dbl>
##  1 509352 (2007 AG)      1900-01-04 22:25:00        0.00963       0.00962
##  2 (2014 SC324)          1900-01-11 01:03:00        0.0400        0.0399 
##  3 4660 Nereus (1982 DB) 1900-01-29 18:22:00        0.0208        0.0208 
##  4 (2015 RW83)           1900-02-04 02:31:00        0.0324        0.0320 
##  5 (2009 BW2)            1900-02-04 11:05:00        0.0176        0.0164 
##  6 (2002 LY1)            1900-02-05 22:08:00        0.0490        0.0490 
##  7 348306 (2005 AY28)    1900-02-05 23:42:00        0.0341        0.0341 
##  8 378160 (2006 WX1)     1900-02-10 05:07:00        0.0369        0.0368 
##  9 (2012 SD22)           1900-02-18 08:31:00        0.0403        0.0403 
## 10 (2013 RZ5)            1900-02-27 20:23:00        0.0349        0.0225 
## # ... with 17,301 more rows, and 6 more variables:
## #   velocity_relative <dbl>, velocity_infinity <dbl>, `H (mag)` <dbl>,
## #   est_min_diameter <dbl>, est_max_diameter <dbl>, X9 <chr>
…
